"date","price","description"
2022-11-03,"111,68","food"
2022-11-04,"125,28","household"
2022-11-05,"64,32","transport"
2022-11-05,"53,2","leisure"
2022-11-05,"96,67","food"
2022-11-06,"108,16","transport"
2022-11-06,"111,76","food"
2022-11-06,"119,84","food"
2022-11-06,"103,28","food"
2022-11-06,"117,19","food"
2022-11-07,"133,15","household"
2022-11-08,"145,41","household"
2022-11-10,"83,45","healthcare"
2022-11-10,"132,14","household"
2022-11-12,"87,31","household"
2022-11-13,"102,87","household"
2022-11-13,"20,77","food"
2022-11-14,"10,63","food"
2022-11-14,"103,75","food"
2022-11-15,"106,26","food"
2022-11-15,"11,32","food"
2022-11-16,"87,87","leisure"
2022-11-16,"14,96","food"
2022-11-16,"87,29","transport"
2022-11-19,"126,41","food"
2022-11-20,"51,64","food"
2022-11-20,"38,68","food"
2022-11-20,"146,36","healthcare"
2022-11-21,"126,55","household"
2022-11-21,"129,69","food"
2022-11-22,"119,23","transport"
2022-11-22,"130,32","food"
2022-11-22,"90,54","leisure"
2022-11-22,"148,64","household"
2022-11-23,"35,98","healthcare"
2022-11-23,"33,91","leisure"
2022-11-25,"148,76","household"
2022-11-25,64,"transport"
2022-11-26,"50,02","transport"
2022-11-26,"97,92","household"
2022-11-26,"136,66","food"
2022-11-26,"18,83","healthcare"
2022-11-27,"19,34","household"
2022-11-27,"123,86","food"
2022-11-28,"111,02","household"
2022-11-28,"65,42","food"
2022-11-29,"78,69","food"
2022-11-29,"102,03","household"
2022-11-30,"135,96","food"
2022-11-30,"119,58","food"
2022-12-01,"145,78","leisure"
2022-12-01,"49,59","food"
2022-12-02,"122,07","household"
2022-12-02,"127,99","food"
2022-12-03,"82,78","food"
2022-12-04,"117,09","household"
2022-12-05,"71,01","household"
2022-12-05,"89,01","food"
2022-12-06,"71,06","food"
2022-12-06,"112,3","food"
2022-12-07,"134,39","food"
2022-12-07,"127,88","food"
2022-12-08,"64,26","transport"
2022-12-08,"15,21","household"
2022-12-09,"76,31","transport"
2022-12-10,"15,76","household"
2022-12-11,"140,48","food"
2022-12-12,"118,34","food"
2022-12-12,"51,71","household"
2022-12-14,"72,03","healthcare"
2022-12-14,"54,19","transport"
2022-12-15,"100,84","household"
2022-12-15,"100,43","leisure"
2022-12-16,"29,81","leisure"
2022-12-17,"89,2","household"
2022-12-17,"23,96","food"
2022-12-17,"137,38","household"
2022-12-18,"35,95","healthcare"
2022-12-19,"60,89","household"
2022-12-19,"85,19","household"
2022-12-20,"18,21","household"
2022-12-21,"129,74","household"
2022-12-21,"34,69","food"
2022-12-21,"131,59","food"
2022-12-23,"139,12","food"
2022-12-24,"82,21","household"
2022-12-24,"75,9","food"
2022-12-25,"53,53","healthcare"
2022-12-25,"123,3","household"
2022-12-26,"98,14","food"
2022-12-26,"13,76","food"
2022-12-26,"18,87","healthcare"
2022-12-26,"65,88","transport"
2022-12-27,"74,58","food"
2022-12-28,"114,63","food"
2022-12-29,"21,03","healthcare"
2022-12-30,"69,89","healthcare"
2022-12-30,"139,99","food"
2022-12-31,"137,4","food"
2022-12-31,"68,48","food"
2022-12-31,"149,25","transport"
2023-01-03,"125,14","food"
2023-01-03,"136,49","food"
2023-01-03,"138,62","transport"
2023-01-04,"98,39","food"
2023-01-04,"125,01","healthcare"
2023-01-04,"109,2","food"
2023-01-04,"29,48","leisure"
2023-01-06,"63,9","food"
2023-01-07,"82,55","food"
2023-01-07,"67,92","household"
2023-01-08,"149,36","food"
2023-01-08,"14,68","household"
2023-01-08,"87,61","household"
2023-01-10,"81,15","food"
2023-01-10,"56,85","household"
2023-01-12,"71,65","household"
2023-01-13,"41,29","food"
2023-01-13,"132,67","household"
2023-01-13,"142,87","household"
2023-01-13,"144,62","food"
2023-01-17,"143,9","household"
2023-01-18,"144,58","household"
2023-01-18,"35,08","healthcare"
2023-01-19,"64,36","healthcare"
2023-01-20,"28,45","healthcare"
2023-01-21,"72,07","food"
2023-01-22,"54,69","food"
2023-01-23,"124,8","transport"
2023-01-24,"18,59","food"
2023-01-24,"126,39","food"
2023-01-24,"13,82","leisure"
2023-01-24,"18,2","healthcare"
2023-01-24,"33,77","food"
2023-01-27,"100,93","transport"
2023-01-27,"145,32","transport"
2023-01-28,"29,06","food"
2023-01-28,"41,01","healthcare"
2023-01-30,"58,51","leisure"
2023-01-30,"111,31","food"
2023-01-31,"31,69","healthcare"
2023-02-01,"66,21","food"
2023-02-02,"32,98","household"
2023-02-02,"122,44","food"
2023-02-02,"86,69","food"
2023-02-03,"121,38","food"
2023-02-04,"58,6","transport"
2023-02-04,"119,9","household"
2023-02-05,"94,72","leisure"
2023-02-06,"112,49","healthcare"
2023-02-08,"106,53","transport"
2023-02-09,"107,47","household"
2023-02-10,"45,38","transport"
2023-02-10,"10,41","household"
2023-02-11,"132,14","food"
2023-02-11,"38,33","household"
2023-02-15,"20,7","food"
2023-02-16,"121,58","food"
2023-02-16,"48,49","food"
2023-02-17,"52,21","household"
2023-02-17,"96,91","household"
2023-02-18,"48,25","food"
2023-02-18,"106,69","household"
2023-02-19,"112,5","food"
2023-02-20,"95,41","food"
2023-02-21,"107,37","leisure"
2023-02-21,"102,48","healthcare"
2023-02-22,"146,73","household"
2023-02-22,"44,2","food"
2023-02-22,"61,37","leisure"
2023-02-22,"116,73","healthcare"
2023-02-22,"91,61","food"
2023-02-23,"146,5","food"
2023-02-24,"15,18","household"
2023-02-25,"27,64","food"
2023-02-26,"97,57","food"
2023-02-27,"54,53","household"
2023-02-28,"25,83","food"
2023-03-01,"92,23","leisure"
2023-03-01,"33,6","food"
2023-03-02,"64,47","food"
2023-03-02,"95,72","food"
2023-03-02,"126,76","transport"
2023-03-03,"33,84","transport"
2023-03-03,"79,58","food"
2023-03-04,"100,49","healthcare"
2023-03-04,"134,67","healthcare"
2023-03-07,"132,76","food"
2023-03-07,"23,89","household"
2023-03-08,"86,31","household"
2023-03-08,"62,02","household"
2023-03-09,"13,31","food"
2023-03-10,"33,61","food"
2023-03-11,"121,66","household"
2023-03-12,"102,74","leisure"
2023-03-12,"143,45","household"
2023-03-12,"55,81","food"
2023-03-12,"95,12","food"
2023-03-13,"144,42","leisure"
2023-03-15,"18,2","food"
2023-03-17,"140,27","leisure"
2023-03-17,"73,51","food"
2023-03-18,"98,13","household"
2023-03-21,"97,13","leisure"
2023-03-21,"148,49","food"
2023-03-22,"148,01","household"
2023-03-23,"64,17","household"
2023-03-23,"57,93","healthcare"
2023-03-24,"37,98","transport"
2023-03-25,"23,43","household"
2023-03-26,"102,17","household"
2023-03-27,"34,01","transport"
2023-03-28,"52,3","household"
2023-03-28,"34,36","food"
2023-03-29,"39,92","household"
2023-03-29,"53,82","household"
2023-03-29,"123,68","healthcare"
2023-03-30,"87,5","transport"
2023-03-31,"40,78","food"
2023-03-31,"71,06","food"
2023-03-31,"44,61","food"
2023-03-31,"71,69","household"
2023-03-31,"78,03","leisure"
2023-04-01,"102,97","household"
2023-04-01,"112,57","healthcare"
2023-04-02,"79,77","household"
2023-04-02,"23,22","healthcare"
2023-04-03,"19,13","food"
2023-04-04,"87,92","food"
2023-04-04,"35,83","food"
2023-04-06,"37,23","household"
2023-04-07,"52,59","transport"
2023-04-08,"81,96","household"
2023-04-08,"25,46","household"
2023-04-08,"110,51","healthcare"
2023-04-08,"90,46","healthcare"
2023-04-09,"38,11","food"
2023-04-09,"56,95","household"
2023-04-09,"21,23","household"
2023-04-12,"124,59","food"
2023-04-12,"32,96","transport"
2023-04-13,"41,64","food"
2023-04-13,"44,37","transport"
2023-04-14,"26,78","household"
2023-04-14,"140,7","household"
2023-04-15,"118,61","household"
2023-04-15,"23,55","transport"
2023-04-16,"138,68","leisure"
2023-04-16,"85,8","transport"
2023-04-17,"65,07","food"
2023-04-17,"104,08","leisure"
2023-04-17,"123,38","healthcare"
2023-04-21,"123,99","food"
2023-04-22,"128,1","leisure"
2023-04-22,"10,04","household"
2023-04-22,"108,13","household"
2023-04-24,"49,44","household"
2023-04-25,"123,39","food"
2023-04-25,"81,41","transport"
2023-04-28,"48,77","food"
2023-04-28,"99,52","food"
2023-04-28,"119,5","leisure"
2023-04-29,"31,9","household"
2023-04-30,"135,44","food"
2023-04-30,"138,73","healthcare"
2023-05-01,"139,53","food"
2023-05-01,"53,16","food"
2023-05-02,"92,45","healthcare"
2023-05-04,"60,18","household"
2023-05-05,"108,02","transport"
2023-05-05,"129,69","food"
2023-05-05,"148,67","healthcare"
2023-05-05,"131,07","healthcare"
2023-05-05,"30,59","healthcare"
2023-05-06,73,"food"
2023-05-07,"16,62","food"
2023-05-08,"84,7","food"
2023-05-08,"23,22","food"
2023-05-08,"30,05","food"
2023-05-09,"122,41","food"
2023-05-09,"102,23","healthcare"
2023-05-09,"120,48","food"
2023-05-10,"29,99","food"
2023-05-10,"101,9","healthcare"
2023-05-11,"104,55","household"
2023-05-12,"128,85","leisure"
2023-05-12,"18,13","transport"
2023-05-12,"95,94","household"
2023-05-13,"51,6","food"
2023-05-16,"107,51","healthcare"
2023-05-16,"31,45","food"
2023-05-17,"70,3","healthcare"
2023-05-19,"99,43","healthcare"
2023-05-20,"146,84","transport"
2023-05-20,"37,96","transport"
2023-05-20,"136,58","food"
2023-05-20,"97,6","healthcare"
2023-05-23,"30,36","food"
2023-05-23,"119,64","household"
2023-05-24,"67,32","food"
2023-05-24,"35,55","food"
2023-05-25,"51,23","transport"
2023-05-26,"129,85","food"
2023-05-26,"61,46","food"
2023-05-28,"49,52","transport"
2023-05-28,"90,29","transport"
2023-05-30,115,"transport"
2023-05-30,"123,85","food"
2023-05-30,"77,12","food"
2023-05-30,"80,14","food"
2023-05-31,"26,55","food"
2023-06-01,"90,84","food"
2023-06-01,"36,26","healthcare"
2023-06-02,"107,31","household"
2023-06-02,"144,83","food"
2023-06-04,"118,53","household"
2023-06-04,"46,99","household"
2023-06-04,"70,6","food"
2023-06-04,"112,94","leisure"
2023-06-05,"84,1","household"
2023-06-05,"95,64","food"
2023-06-05,"56,22","healthcare"
2023-06-06,"149,08","food"
2023-06-08,"54,81","food"
2023-06-08,"64,42","household"
2023-06-09,"136,37","food"
2023-06-09,"128,95","food"
2023-06-09,"67,4","food"
2023-06-10,"128,99","leisure"
2023-06-10,"65,84","food"
2023-06-11,"100,33","food"
2023-06-11,"40,48","household"
2023-06-12,"55,41","household"
2023-06-13,"124,5","food"
2023-06-14,"90,23","household"
2023-06-14,"102,24","food"
2023-06-15,"14,37","healthcare"
2023-06-15,"79,22","healthcare"
2023-06-16,36,"food"
2023-06-16,"48,27","food"
2023-06-16,"104,64","healthcare"
2023-06-17,"113,53","food"
2023-06-18,"62,19","food"
2023-06-18,"71,81","food"
2023-06-19,"89,4","household"
2023-06-20,"119,74","transport"
2023-06-20,"78,09","food"
2023-06-21,"27,27","household"
2023-06-21,"109,17","food"
2023-06-21,"112,45","food"
2023-06-21,"15,72","food"
2023-06-23,"119,9","food"
2023-06-23,"58,06","household"
2023-06-24,"26,61","healthcare"
2023-06-25,"58,96","food"
2023-06-26,"35,12","food"
2023-06-26,"112,89","food"
2023-06-27,"121,04","food"
2023-06-27,"104,62","leisure"
2023-06-30,"99,55","food"
2023-07-01,"113,28","food"
2023-07-01,"40,48","household"
2023-07-01,"92,46","food"
2023-07-01,"89,64","food"
2023-07-02,"63,79","healthcare"
2023-07-04,"91,76","transport"
2023-07-04,"102,02","food"
2023-07-05,"32,01","healthcare"
2023-07-07,"71,11","transport"
2023-07-07,"143,73","household"
2023-07-08,"131,96","food"
2023-07-08,"105,86","food"
2023-07-09,"10,47","food"
2023-07-09,"117,21","household"
2023-07-09,"98,9","transport"
2023-07-10,"139,28","leisure"
2023-07-10,139,"healthcare"
2023-07-10,"83,79","food"
2023-07-10,"14,82","leisure"
2023-07-12,"74,72","household"
2023-07-13,"115,83","transport"
2023-07-14,"25,09","household"
2023-07-14,"45,91","food"
2023-07-14,"42,31","food"
2023-07-14,"93,92","leisure"
2023-07-16,"135,17","household"
2023-07-17,"122,54","household"
2023-07-18,"95,13","household"
2023-07-18,"62,93","food"
2023-07-19,"98,53","food"
2023-07-19,"107,1","leisure"
2023-07-20,"114,72","food"
2023-07-21,"102,09","healthcare"
2023-07-21,"58,47","food"
2023-07-21,"79,74","leisure"
2023-07-21,"45,47","food"
2023-07-22,"142,88","household"
2023-07-23,"94,72","food"
2023-07-23,"72,43","leisure"
2023-07-23,"103,95","healthcare"
2023-07-24,"145,72","food"
2023-07-24,"105,55","household"
2023-07-24,"22,74","food"
2023-07-25,"122,07","healthcare"
2023-07-26,"140,22","food"
2023-07-26,"103,14","household"
2023-07-26,"83,2","food"
2023-07-27,"66,85","food"
2023-07-29,"50,08","food"
2023-07-30,"120,39","food"
2023-07-31,"101,53","healthcare"
2023-08-01,"56,97","food"
2023-08-01,"76,09","transport"
2023-08-03,"23,15","transport"
2023-08-04,"89,75","food"
2023-08-04,"86,64","transport"
2023-08-04,"37,84","household"
2023-08-06,"46,53","leisure"
2023-08-07,"137,11","leisure"
2023-08-08,"15,75","food"
2023-08-09,"107,54","leisure"
2023-08-09,"27,68","food"
2023-08-09,"87,78","food"
2023-08-09,"33,63","healthcare"
2023-08-11,"86,83","household"
2023-08-12,"129,07","healthcare"
2023-08-13,"47,14","food"
2023-08-15,"106,75","healthcare"
2023-08-16,"87,06","food"
2023-08-16,"16,13","leisure"
2023-08-17,"95,69","food"
2023-08-18,"88,53","transport"
2023-08-18,"122,43","food"
2023-08-18,"130,94","household"
2023-08-18,"58,85","transport"
2023-08-19,"65,3","transport"
2023-08-19,"83,98","household"
2023-08-20,"47,61","household"
2023-08-20,"98,16","food"
2023-08-20,"124,98","food"
2023-08-21,"46,36","transport"
2023-08-21,"87,88","leisure"
2023-08-22,"118,56","transport"
2023-08-23,"41,75","food"
2023-08-24,75,"leisure"
2023-08-25,"97,94","transport"
2023-08-25,"59,55","food"
2023-08-25,"99,3","healthcare"
2023-08-25,"94,56","household"
2023-08-25,"54,65","household"
2023-08-27,"137,64","food"
2023-08-28,"108,47","food"
2023-08-29,"95,37","food"
2023-08-30,"75,94","transport"
2023-08-30,"64,32","food"
2023-09-01,"41,08","household"
2023-09-01,"24,32","healthcare"
2023-09-02,"111,52","food"
2023-09-02,"111,09","leisure"
2023-09-02,"20,06","food"
2023-09-02,"43,86","household"
2023-09-02,"73,01","food"
2023-09-02,"42,28","transport"
2023-09-04,"126,96","household"
2023-09-04,"35,92","household"
2023-09-05,"106,68","transport"
2023-09-06,"112,98","food"
2023-09-06,"19,92","leisure"
2023-09-06,"74,84","food"
2023-09-07,"75,93","transport"
2023-09-07,"141,78","transport"
2023-09-07,"69,15","household"
2023-09-08,"43,41","transport"
2023-09-09,"107,74","household"
2023-09-09,"108,79","household"
2023-09-10,"61,31","household"
2023-09-11,"98,29","food"
2023-09-11,"122,65","food"
2023-09-11,"90,74","household"
2023-09-12,"38,21","household"
2023-09-14,"58,57","transport"
2023-09-15,"50,7","household"
2023-09-15,"84,55","healthcare"
2023-09-16,"68,74","food"
2023-09-17,"122,51","healthcare"
2023-09-17,"98,06","healthcare"
2023-09-18,"89,31","food"
2023-09-19,59,"household"
2023-09-21,"79,94","transport"
2023-09-22,"109,54","household"
2023-09-22,"109,99","household"
2023-09-23,"132,25","leisure"
2023-09-23,"56,97","food"
2023-09-24,"80,86","food"
2023-09-25,"145,61","household"
2023-09-26,"136,44","transport"
2023-09-26,"45,33","food"
2023-09-26,"49,67","food"
2023-09-28,"15,75","healthcare"
2023-09-28,"48,01","food"
